'Таблица калорийности продуктов, 100 г',,,,,,,
Наименование,Белки,Жиры,Углеводы,Калорийность,Вес фасовочный,Цена,Цена  за 100 гр
Авокадо,2.00,19.00,7.00,197.00,200,67.49,33.75
Аджика,2.00,3.00,8.00,59.00,510,79.99,15.68
Айсберг,1.00,0.00,2.00,17.00,500,139.00,27.80
Ананас,0.00,0.00,12.00,50.00,1000,129.00,12.90
Ананас консервированный,0.00,0.00,16.00,65.00,580,89.99,15.52
Апельсин,2.00,0.00,9.00,43.00,1000,49.90,4.99
Арахис,25.00,46.00,13.00,561.00,300,79.99,26.66
Базилик свежий,3.00,1.00,4.00,27.00,200,49.99,16.66
Баклажаны,1.00,0.00,6.00,27.00,1000,289.00,96.33
Банан,3.00,3.00,22.00,97.00,1000,59.90,19.97
Баранина ,24.00,21.00,0.00,286.00,1000,784.00,261.33
Батон нарезной,8.00,3.00,49.00,264.00,400,28.66,9.55
Бедро индейки,16.00,9.00,1.00,143.00,1000,464.00,154.67
Бекон,15.00,45.00,2.00,469.00,1000,392.00,130.67
Брокколи,4.00,1.00,4.00,33.00,1000,229.00,76.33
Вареная колбаса,12.00,22.00,1.00,253.00,1000,609.00,203.00
Варёная сгущёнка,7.00,9.00,55.00,326.00,380,91.40,30.47
Вафли,5.30,4.50,28.10,179.40,220,39.99,13.33
Ветчина,16.00,19.00,2.00,246.00,450,350.70,116.90
Виноград,1.00,1.00,16.00,69.00,1000,209.00,69.67
Говядина,20.00,13.00,0.00,192.00,1000,669.00,223.00
Голень куриная,20.00,9.00,0.00,168.00,1000,254.00,84.67
Голландский сыр,24.00,30.00,0.00,373.00,350,313.14,104.38
Голубика,1.00,1.00,9.00,46.00,125,159.00,53.00
Горбуша,21.00,7.00,0.00,143.00,250,110.63,36.88
Горошек зеленый,4.00,0.00,10.00,59.00,250,249.00,83.00
Горчица,8.00,11.00,13.00,184.00,200,41.40,13.80
Гранат,2.00,1.00,14.00,67.00,1000,119.00,39.67
Грейпфрут,1.00,0.00,9.00,41.00,1000,179.00,59.67
Грецкие орехи,15.00,65.00,14.00,697.00,130,299.00,99.67
Гречневая крупа,12.00,4.00,63.00,329.00,900,84.99,28.33
Грибы белые,9.00,2.00,3.00,28.00,300,239.20,79.73
Грибы маслята,2.00,1.00,1.00,9.00,280,119.00,39.67
Грибы опята,2.00,1.00,1.00,17.00,560,234.00,78.00
Грибы шампиньоны,4.00,1.00,0.00,22.00,400,116.07,38.69
Груша,1.00,0.00,12.00,51.00,1000,144.00,48.00
Ежевика,2.00,0.00,5.00,31.00,125,264.00,88.00
Зеленая фасоль,3.00,0.00,4.00,30.00,1000,84.00,8.40
Зеленый лук,1.00,0.00,4.00,19.00,100,16.00,16.00
Петрушка свежая,4.00,0.00,8.00,50.00,300,29.99,10.00
Зелёный горошек "Бондюэль",5.00,0.00,8.00,60.00,200,48.90,24.45
Имбирь свежий,2.00,1.00,16.00,72.00,1000,299.00,29.90
Индейка (грудка),19.00,2.00,0.00,94.00,1000,484.00,48.40
Индейка (филе),20.00,12.00,0.00,188.00,1000,484.00,48.40
Сухофрукты,3.00,1.00,57.00,239.00,300,282.00,94.00
Кабачки  ,1.00,6.00,7.00,91.00,1000,189.00,18.90
Кабачковая икра,1.00,6.00,7.00,90.00,510,103.90,20.37
Кальмар,18.00,2.00,1.00,97.00,1000,365.00,36.50
Капуста белокочанная,2.00,0.00,6.00,29.00,1000,13.99,1.40
Капуста квашенная,2.00,0.00,3.00,23.00,900,89.90,9.99
Капуста цветная,3.00,0.00,5.00,34.00,1000,179.00,17.90
Картофель,2.00,1.00,20.00,84.00,1000,32.99,3.30
Кедровые орехи,15.00,63.00,17.00,652.00,200,264.00,132.00
Кетчуп,5.00,1.00,16.00,90.00,350,72.79,20.80
Кешью,21.00,48.00,20.00,607.00,150,250.00,166.67
Киви,1.00,1.00,10.00,51.00,1000,129.00,12.90
Клубника,1.00,0.00,7.00,32.00,250,224.25,89.70
Колбаса вареная "докторская",13.00,22.00,1.00,254.00,500,269.00,53.80
Колбаса Сервелат,24.00,40.50,0.00,461.00,1000,679.00,67.90
Конфеты Ferrero Rocher с орехом,8.80,41.30,43.20,580.00,300,611.11,203.70
Конфеты Raffaello,9.30,47.80,38.80,623.00,150,399.00,266.00
Конфеты Merci ассорти,7.60,36.37,50.80,560.00,400,650.70,162.68
Конфеты Батончики Рот-Фронт,10.70,29.50,53.20,514.00,250,69.99,28.00
Конфеты Маска,8.80,31.20,54.00,5.23,250,106.83,42.73
Корнишоны маринованные,1.00,0.00,4.00,36.00,720,139.90,19.43
Крабовые палочки,8.00,2.00,10.00,85.00,200,70.00,35.00
Красная фасоль консервированная,7.00,0.00,17.00,99.00,425,56.99,13.41
Креветки (отварные),18.00,2.00,0.00,90.00,500,696.00,139.20
Кукуруза консервированная,3.00,2.00,17.00,87.00,170,50.90,29.94
Курага,5.00,0.00,54.00,232.00,220,174.54,79.34
Куриные грудки,23.00,6.00,3.00,144.00,1000,244.00,24.40
Куриные окорочка,18.00,11.00,0.00,170.00,1000,194.00,19.40
Лаваш армянский,8.00,2.00,53.00,269.00,300,30.88,10.29
Лайм,1.00,0.00,4.00,20.00,1000,344.25,34.43
Лапша яичная,10.00,2.00,64.00,330.00,300,80.40,26.80
Лимон,1.00,0.00,4.00,27.00,1000,99.99,10.00
Лосось,21.00,10.00,1.00,172.00,1000,1069.90,106.99
Лук,1.00,0.00,9.00,40.00,1000,23.99,2.40
Лук красный салатный,1.00,0.00,9.00,42.00,500,39.99,8.00
Майонез,2.00,57.00,4.00,550.00,800,92.40,11.55
Макароны отварные,4.00,1.00,23.00,119.00,450,45.20,10.04
Малина,4.00,0.00,9.00,41.00,125,280.00,224.00
Манго,1.00,0.00,13.00,62.00,350,74.99,21.43
Мандарин,1.00,1.00,9.00,40.00,1000,69.99,7.00
Мармелад,1.00,0.00,75.00,302.00,700,37.49,5.36
Маслины,1.00,14.00,10.00,167.00,360,96.99,26.94
Масло оливковое,1.00,91.00,3.00,851.00,500,309.90,61.98
Масло растительное,2.00,97.00,0.00,897.00,1000,99.99,10.00
Масло сливочное,1.00,74.00,1.00,674.00,180,125.61,69.78
Мед,1.00,0.00,80.00,315.00,400,279.90,69.98
Миндаль,18.00,51.00,16.00,601.00,100,234.06,234.06
Молоко,7.00,3.00,7.00,66.00,950,80.38,8.46
Морковь свежая,1.00,0.00,8.00,35.00,1000,37.99,3.80
Мороженое Пломбир,4.00,15.00,24.00,245.00,200,52.99,26.50
Морская капуста,1.00,2.00,2.00,37.00,470,88.00,18.72
Мясо свинина,26.00,29.00,7.00,293.00,1000,336.75,33.68
Огурцы свежие,1.00,0.00,4.00,19.00,1000,189.00,18.90
Огурцы маринованные,2.00,0.00,2.00,16.00,720,69.99,9.72
Огурцы солёные,1.00,0.00,2.00,14.00,500,124.00,24.80
Оливки,1.00,17.00,5.00,178.00,300,64.99,21.66
Оливки зеленые без косточки,1.00,17.00,0.00,157.00,300,99.90,33.30
Перец сладкий,1.00,0.00,5.00,26.00,1000,139.00,13.90
Персики,1.00,1.00,12.00,51.00,1000,149.00,14.90
Персики консервированные,2.00,0.00,42.00,168.00,850,129.90,15.28
Печенье "Юбилейное" Молочное,8.00,18.00,66.00,455.00,112,19.00,16.96
Печенье Konti супер-Контик со сгущенным молоком,5.94,24.27,62.10,483.33,100,28.86,28.86
Плавленный сыр,15.00,20.00,2.00,280.00,70,8.45,12.07
Помидоры консервированные,1.00,0.00,5.00,23.00,400,54.99,13.75
Помидоры свежие,4.00,1.00,3.00,33.00,1000,129.00,12.90
Раковые шейки,11.54,2.30,9.15,102.35,200,229.00,114.50
Редис,1.00,0.00,4.00,20.00,500,54.99,11.00
Редька,2.00,0.00,7.00,35.00,1000,29.99,3.00
Рис,7.00,1.00,75.00,331.00,900,98.40,10.93
Руккола,2.00,1.00,2.00,24.00,125,139.00,111.20
Рыба скумбрия,16.00,13.00,1.00,187.00,1000,298.50,29.85
Рыба треска,17.00,1.00,0.00,80.00,1000,459.00,45.90
Сало,2.4,89,0,7.97,1000,617.88,61.79
Сайра,17.50,2.00,0.00,88.00,250,78.00,31.20
Свекла,2.00,1.00,12.00,61.00,1000,12.99,1.30
Сельдь атлантическая жирная,15.00,15.00,0.00,204.00,250,39.99,16.00
Слива садовая,1.00,0.00,10.00,45.00,1000,119.00,11.90
Сметана 20%,3.00,15.00,4.00,159.00,315,69.99,22.22
Смородина красная,1.00,0.00,8.00,40.00,150,249.00,166.00
Соевый соус,5.00,0.00,22.00,36.00,250,38.48,15.39
Сок апельсиновый,1.00,0.00,11.00,47.00,10,59.99,599.90
Сыр Тильзит,26.00,26.00,0.00,336.00,140,101.96,72.83
Сыр "Сливочный",23.00,28.00,0.00,288.00,1000,600.59,60.06
Сыр Гауда,24.00,27.00,2.00,350.00,400,188.30,47.08
Сырок плавленный "Дружба",6.00,19.00,0.00,178.00,400,98.62,24.66
Сыр "Российский",23.00,29.00,0.00,361.00,300,146.30,48.77
'Сыр твердый, Маасдам',25.00,27.00,2.00,358.00,400,230.30,57.58
Сыр творожный,17.00,5.00,2.00,122.00,150,62.23,41.49
Сыр BluDelice с голубой плесенью,18.00,31.00,0.00,353.00,1000,1311.80,131.18
Томаты черри,1.00,0.00,3.00,17.00,500,189.00,37.80
Торт "Наполеон",5.10,11.20,31.90,247.80,700,289.00,41.29
Торт "У Палыча" Блинный  ,6.50,20.10,42.00,375.00,900,699.00,77.67
Пирог Тирольский "Тирамису",10.00,11.00,47.00,292.00,480,279.00,58.13
Треска филе,17.00,1.00,0.00,78.00,1000,429.00,42.90
Тыква,1.00,0.00,5.00,22.00,1000,39.99,4.00
Укроп,3.00,1.00,6.00,38.00,500,34.99,7.00
Фасоль  ,7.00,0.00,10.00,74.00,400,56.99,14.25
Фета,17.00,24.00,0.00,290.00,400,185.00,46.25
Филе куринное,23.00,2.00,0.00,114.00,1000,289.00,28.90
Финики (сухофрукты),2.00,0.00,72.00,280.00,200,144.00,72.00
Фундук,15.00,62.00,11.00,665.00,150,259.00,172.67
Хлеб "бородинский",7.00,1.00,42.00,210.00,400,48.82,12.21
Хурма,1.00,0.00,15.00,65.00,1000,89.00,8.90
Цукаты,3.00,0.00,56.00,224.00,250,139.00,55.60
Чернослив (сухофрукты),3.00,0.00,62.00,256.00,200,119.00,59.50
Чеснок,6.00,0.00,23.00,115.00,1000,109.00,10.90
Чиз-кейк  с  фруктами,5.30,33.00,7.90,212.00,1000,369.00,36.90
Шампиньоны,4.00,1.00,1.00,26.00,500,149.00,29.80
Шоколад горький 75%,9.00,41.00,39.00,550.00,100,86.00,86.00
Шоколад с изюмом и фундуком,12.00,39.00,34.00,527.00,90,84.90,94.33
Шоколад молочный,7.00,34.00,52.00,539.00,90,84.00,93.33
Шпинат,3.00,0.00,2.00,22.00,50,39.99,79.98
Яблоки,1.00,1.00,13.00,60.00,1000,94.99,9.50
Яйцо куриное,15.00,13.00,1.00,162.00,500,84.90,16.98
